lab11_hw.knit
…
4. Your answer above doesnt tell the whole story since life expectancy varies by region. Make a summary that shows the min, mean, and max life expectancy by continent for all years represented in the data.

gapminder %>% 
  group_by(continent, year) %>% 
  summarize(min_life_exp=min(lifeExp),
            mean_life_exp=mean(lifeExp),
            max_life_exp=max(lifeExp))

## `summarise()` has grouped output by 'continent'. You can override using the
## `.groups` argument.

## # A tibble: 60 x 5
## # Groups:   continent [5]
##    continent  year min_life_exp mean_life_exp max_life_exp
##    <fct>     <int>        <dbl>         <dbl>        <dbl>
##  1 Africa     1952         30            39.1         52.7
##  2 Africa     1957         31.6          41.3         58.1
##  3 Africa     1962         32.8          43.3         60.2
##  4 Africa     1967         34.1          45.3         61.6
##  5 Africa     1972         35.4          47.5         64.3
##  6 Africa     1977         36.8          49.6         67.1
##  7 Africa     1982         38.4          51.6         69.9
##  8 Africa     1987         39.9          53.3         71.9
##  9 Africa     1992         23.6          53.6         73.6
## 10 Africa     1997         36.1          53.6         74.8
## # ... with 50 more rows
…
