…
```r
tibble(colleges)
```

```
## # A tibble: 341 x 10
##    instnm      city  stabbr zip   adm_rate sat_avg pcip26 costt4_a c150_4_pooled
##    <chr>       <chr> <chr>  <chr>    <dbl>   <dbl>  <dbl>    <dbl>         <dbl>
##  1 Grossmont ~ El C~ CA     9202~       NA      NA 0.0016     7956        NA    
##  2 College of~ Visa~ CA     9327~       NA      NA 0.0066     8109        NA    
##  3 College of~ San ~ CA     9440~       NA      NA 0.0038     8278        NA    
##  4 Ventura Co~ Vent~ CA     9300~       NA      NA 0.0035     8407        NA    
##  5 Oxnard Col~ Oxna~ CA     9303~       NA      NA 0.0085     8516        NA    
##  6 Moorpark C~ Moor~ CA     9302~       NA      NA 0.0151     8577        NA    
##  7 Skyline Co~ San ~ CA     9406~       NA      NA 0          8580         0.233
##  8 Glendale C~ Glen~ CA     9120~       NA      NA 0.002      9181        NA    
##  9 Citrus Col~ Glen~ CA     9174~       NA      NA 0.0021     9281        NA    
## 10 Fresno Cit~ Fres~ CA     93741       NA      NA 0.0324     9370        NA    
## # ... with 331 more rows, and 1 more variable: pftftug1_ef <dbl>
```
2. Which cities in California have the highest number of colleges?

```r
colleges %>% 
  count(city) %>% 
  arrange(desc(n))
```

```
## # A tibble: 161 x 2
##    city              n
##    <chr>         <int>
##  1 Los Angeles      24
##  2 San Diego        18
##  3 San Francisco    15
##  4 Sacramento       10
##  5 Berkeley          9
##  6 Oakland           9
##  7 Claremont         7
##  8 Pasadena          6
##  9 Fresno            5
## 10 Irvine            5
## # ... with 151 more rows
```
…
4. The column `COSTT4_A` is the annual cost of each institution. Which city has the highest average cost? Where is it located?

```r
colleges %>% 
  group_by(city) %>% 
  summarize(average_cost=mean(costt4_a, na.rm = T),total=n()) %>% 
  arrange(desc(average_cost))
```

```
## # A tibble: 161 x 3
##    city                average_cost total
##    <chr>                      <dbl> <int>
##  1 Claremont                  66498     7
##  2 Malibu                     66152     1
##  3 Valencia                   64686     1
##  4 Orange                     64501     3
##  5 Redlands                   61542     1
##  6 Moraga                     61095     1
##  7 Atherton                   56035     1
##  8 Thousand Oaks              54373     1
##  9 Rancho Palos Verdes        50758     1
## 10 La Verne                   50603     1
## # ... with 151 more rows
```
…
